{
  "created": {
    "version": "7",
    "user": "bbmiller",
    "changeset": "11129782",
    "uid": "451048",
    "timestamp": "2012-03-28T18:31:23Z"
  },
  "pos": [
    41.9730791,
    -87.6866303
  ],
  "type": "node",
  "id": "261114295",
  "visible": "true"
}
{
  "created": {
    "version": "6",
    "user": "bbmiller",
    "changeset": "8448766",
    "uid": "451048",
    "timestamp": "2011-06-15T17:04:54Z"
  },
  "pos": [
    41.9730416,
    -87.6878512
  ],
  "type": "node",
  "id": "261114296",
  "visible": "true"
}
{
  "created": {
    "version": "5",
    "user": "bbmiller",
    "changeset": "8581395",
    "uid": "451048",
    "timestamp": "2011-06-29T14:14:14Z"
  },
  "pos": [
    41.9729565,
    -87.6939548
  ],
  "type": "node",
  "id": "261114299",
  "visible": "true"
}
{
  "created": {
    "version": "5",
    "user": "bbmiller",
    "changeset": "8581395",
    "uid": "451048",
    "timestamp": "2011-06-29T14:14:14Z"
  },
  "pos": [
    41.970738,
    -87.6976025
  ],
  "type": "node",
  "id": "261146436",
  "visible": "true"
}
{
  "created": {
    "version": "7",
    "user": "bbmiller",
    "changeset": "8581395",
    "uid": "451048",
    "timestamp": "2011-06-29T14:14:15Z"
  },
  "pos": [
    41.9740068,
    -87.6988576
  ],
  "type": "node",
  "id": "261147304",
  "visible": "true"
}
{
  "created": {
    "version": "5",
    "user": "bbmiller",
    "changeset": "8581395",
    "uid": "451048",
    "timestamp": "2011-06-29T14:14:14Z"
  },
  "pos": [
    41.9707656,
    -87.6938669
  ],
  "type": "node",
  "id": "261224274",
  "visible": "true"
}
{
  "created": {
    "version": "47",
    "user": "bbmiller",
    "changeset": "8448766",
    "uid": "451048",
    "timestamp": "2011-06-15T16:55:37Z"
  },
  "pos": [
    41.9730154,
    -87.6890403
  ],
  "type": "node",
  "id": "293816175",
  "visible": "true"
}
{
  "created": {
    "version": "37",
    "user": "Umbugbene",
    "changeset": "15348240",
    "uid": "567034",
    "timestamp": "2013-03-13T07:46:29Z"
  },
  "pos": [
    41.9749225,
    -87.6891198
  ],
  "type": "node",
  "id": "305896090",
  "visible": "true"
}
{
  "created": {
    "version": "12",
    "user": "Umbugbene",
    "changeset": "15348240",
    "uid": "567034",
    "timestamp": "2013-03-13T08:02:56Z"
  },
  "pos": [
    41.9740292,
    -87.701243
  ],
  "type": "node",
  "id": "317636974",
  "visible": "true"
}
{
  "created": {
    "version": "13",
    "user": "Umbugbene",
    "changeset": "15348240",
    "uid": "567034",
    "timestamp": "2013-03-13T08:08:01Z"
  },
  "pos": [
    41.9740556,
    -87.6979712
  ],
  "type": "node",
  "id": "317636971",
  "visible": "true"
}
{
  "created": {
    "version": "2",
    "user": "Umbugbene",
    "changeset": "14927972",
    "uid": "567034",
    "timestamp": "2013-02-05T22:43:49Z"
  },
  "pos": [
    41.9705609,
    -87.7012048
  ],
  "type": "node",
  "id": "317637399",
  "visible": "true"
}
{
  "created": {
    "version": "2",
    "user": "Umbugbene",
    "changeset": "14927972",
    "uid": "567034",
    "timestamp": "2013-02-05T22:43:49Z"
  },
  "pos": [
    41.9706972,
    -87.7012109
  ],
  "type": "node",
  "id": "317637398",
  "visible": "true"
}
{
  "created": {
    "version": "3",
    "user": "bbmiller",
    "changeset": "8448766",
    "uid": "451048",
    "timestamp": "2011-06-15T17:04:54Z"
  },
  "pos": [
    41.973113,
    -87.6847998
  ],
  "type": "node",
  "id": "365214872",
  "visible": "true"
}
{
  "created": {
    "version": "6",
    "user": "bbmiller",
    "changeset": "8581395",
    "uid": "451048",
    "timestamp": "2011-06-29T14:14:15Z"
  },
  "pos": [
    41.9747482,
    -87.6988886
  ],
  "type": "node",
  "id": "261299091",
  "visible": "true"
}
{
  "created": {
    "version": "6",
    "user": "bbmiller",
    "changeset": "8448766",
    "uid": "451048",
    "timestamp": "2011-06-15T17:04:54Z"
  },
  "pos": [
    41.9731219,
    -87.6841979
  ],
  "type": "node",
  "id": "261114294",
  "visible": "true"
}
{
  "created": {
    "version": "4",
    "user": "woodpeck_fixbot",
    "changeset": "3359748",
    "uid": "147510",
    "timestamp": "2009-12-13T00:36:09Z"
  },
  "pos": [
    41.9707217,
    -87.7000019
  ],
  "type": "node",
  "id": "261210804",
  "visible": "true"
}
{
  "created": {
    "version": "7",
    "user": "bbmiller",
    "changeset": "8581395",
    "uid": "451048",
    "timestamp": "2011-06-29T14:14:15Z"
  },
  "pos": [
    41.9748542,
    -87.6922652
  ],
  "type": "node",
  "id": "261221422",
  "visible": "true"
}
{
  "created": {
    "version": "7",
    "user": "bbmiller",
    "changeset": "8581395",
    "uid": "451048",
    "timestamp": "2011-06-29T14:14:15Z"
  },
  "pos": [
    41.9758794,
    -87.6923639
  ],
  "highway": "traffic_signals",
  "type": "node",
  "id": "261221424",
  "visible": "true"
}
{
  "created": {
    "version": "2",
    "user": "linuxUser16",
    "changeset": "17206049",
    "uid": "1219059",
    "timestamp": "2013-08-03T16:43:42Z"
  },
  "cuisine": "mexican",
  "pos": [
    41.975703,
    -87.6921867
  ],
  "type": "node",
  "id": "2406124091",
  "phone": "1 (773)-271-5176",
  "visible": "true",
  "takeaway": "yes",
  "smoking": "no",
  "address": {
    "city": "Chicago",
    "housenumber": "5157",
    "postcode": "60625",
    "street": "North Lincoln Ave"
  },
  "outdoor_seating": "no",
  "name": "La Cabana De Don Luis",
  "amenity": "restaurant"
}
{
  "created": {
    "version": "1",
    "user": "linuxUser16",
    "changeset": "20187349",
    "uid": "1219059",
    "timestamp": "2014-01-25T01:56:10Z"
  },
  "shop": "doityourself",
  "address": {
    "city": "Chicago",
    "housenumber": "4874",
    "state": "Illinois",
    "country": "US",
    "street": "N. Lincoln Ave",
    "postcode": "60625"
  },
  "pos": [
    41.9705219,
    -87.6900344
  ],
  "name": "Matty Ks",
  "type": "node",
  "id": "2636084635",
  "visible": "true",
  "source": "GPS",
  "phone": "(773)-654-1347"
}
{
  "created": {
    "version": "6",
    "user": "bbmiller",
    "changeset": "8581395",
    "uid": "451048",
    "timestamp": "2011-06-29T14:14:13Z"
  },
  "pos": [
    41.9707413,
    -87.6963097
  ],
  "type": "node",
  "id": "261198953",
  "visible": "true"
}
{
  "created": {
    "version": "2",
    "user": "uboot",
    "changeset": "5288876",
    "uid": "26299",
    "timestamp": "2010-07-22T16:16:51Z"
  },
  "cuisine": "sausage",
  "pos": [
    41.9747374,
    -87.6920102
  ],
  "name": "Shelly's Tasty Freeze",
  "type": "node",
  "id": "757860928",
  "visible": "true",
  "amenity": "fast_food"
}
{
  "created": {
    "version": "1",
    "user": "linuxUser16",
    "changeset": "20187382",
    "uid": "1219059",
    "timestamp": "2014-01-25T02:01:54Z"
  },
  "node_refs": [
    "2636086179",
    "2636086178",
    "2636086177",
    "2636086176"
  ],
  "highway": "service",
  "type": "way",
  "id": "258219703",
  "visible": "true"
}
{
  "created": {
    "version": "2",
    "uid": "634589",
    "changeset": "11043902",
    "user": "Jacobs Studios",
    "timestamp": "2012-03-20T18:56:44Z"
  },
  "address": {
    "housename": "Village Hall",
    "housenumber": "1400",
    "postcode": "60067",
    "street": "Baldwin Rd."
  },
  "pos": [
    42.1251718,
    -88.0780576
  ],
  "name": "Village Hall",
  "type": "node",
  "id": "1683602133",
  "amenity": "townhall"
}
{
  "created": {
    "version": "1",
    "user": "chicago-buildings",
    "changeset": "15353317",
    "uid": "674454",
    "timestamp": "2013-03-13T15:58:04Z"
  },
  "building:levels": "1",
  "node_refs": [
    "2199822281",
    "2199822390",
    "2199822392",
    "2199822369",
    "2199822370",
    "2199822284",
    "2199822281"
  ],
  "address": {
    "housenumber": "1412",
    "street": "West Lexington St."
  },
  "type": "way",
  "id": "209809850",
  "visible": "true",
  "building": "yes",
  "chicago:building_id": "366409"
}
